…
Regression Analysis: By Rohit Thakur

``` r
#removing NAs if any
math_scores<-as_tibble(na.omit(df))
print(math_scores)
```

    ## # A tibble: 395 x 34
    ##    school sex     age address famsize Pstatus  Medu  Fedu Mjob  Fjob  reason
    ##    <chr>  <fct> <dbl> <fct>   <fct>   <chr>   <dbl> <dbl> <chr> <chr> <chr> 
    ##  1 GP     F        18 U       GT3     A           4     4 at_h~ teac~ course
    ##  2 GP     F        17 U       GT3     T           1     1 at_h~ other course
    ##  3 GP     F        15 U       LE3     T           1     1 at_h~ other other 
    ##  4 GP     F        15 U       GT3     T           4     2 heal~ serv~ home  
    ##  5 GP     F        16 U       GT3     T           3     3 other other home  
    ##  6 GP     M        16 U       LE3     T           4     3 serv~ other reput~
    ##  7 GP     M        16 U       LE3     T           2     2 other other home  
    ##  8 GP     F        17 U       GT3     A           4     4 other teac~ home  
    ##  9 GP     M        15 U       LE3     A           3     2 serv~ other home  
    ## 10 GP     M        15 U       GT3     T           3     4 other other home  
    ## # ... with 385 more rows, and 23 more variables: guardian <chr>,
    ## #   traveltime <dbl>, studytime <fct>, failures <dbl>, schoolsup <fct>,
    ## #   famsup <fct>, paid <chr>, activities <chr>, nursery <chr>, higher <fct>,
    ## #   internet <chr>, romantic <fct>, famrel <dbl>, freetime <dbl>, goout <dbl>,
    ## #   Dalc <dbl>, Walc <dbl>, health <dbl>, absences <dbl>, G1 <dbl>, G2 <dbl>,
    ## #   G3 <dbl>, score <dbl>
…
